0.000000000000000000e+00,-6.095125440830000116e+03,3.685999999999999693e-02,9.360000000000000264e-03,0.000000000000000000e+00,0.000000000000000000e+00,1.391500000000000000e+03
1.000000000000000000e+00,-6.095257628700000168e+03,7.320000000000000118e-03,1.680000000000000070e-03,3.245600000000000152e-01,8.414000000000000368e-01,1.046800000000000000e+04
2.000000000000000000e+00,-6.095263259790000120e+03,2.330000000000000040e-03,5.599999999999999509e-04,6.293999999999999595e-02,1.400899999999999923e-01,1.196350000000000000e+04
3.000000000000000000e+00,-6.095264281239999946e+03,1.090000000000000040e-03,2.400000000000000061e-04,3.244999999999999968e-02,1.026900000000000035e-01,1.333189999999999964e+04
4.000000000000000000e+00,-6.095264632030000030e+03,5.699999999999999772e-04,1.299999999999999886e-04,2.736999999999999850e-02,9.112000000000000655e-02,1.471079999999999927e+04
5.000000000000000000e+00,-6.095264776150000216e+03,4.299999999999999894e-04,9.000000000000000567e-05,2.258999999999999897e-02,8.615000000000000435e-02,2.021109999999999854e+04
6.000000000000000000e+00,-6.095264826239999820e+03,1.499999999999999869e-04,2.000000000000000164e-05,8.309999999999999679e-03,3.146999999999999797e-02,2.172609999999999854e+04
7.000000000000000000e+00,-6.095264835840000160e+03,2.100000000000000087e-04,4.000000000000000327e-05,1.473000000000000004e-02,5.265000000000000235e-02,2.489050000000000000e+04
8.000000000000000000e+00,-6.095264844049999738e+03,5.000000000000000240e-05,1.000000000000000082e-05,5.550000000000000246e-03,1.929000000000000159e-02,2.644870000000000073e+04
9.000000000000000000e+00,-6.095264845990000140e+03,3.000000000000000076e-05,1.000000000000000082e-05,1.639999999999999965e-03,5.640000000000000048e-03,2.725809999999999854e+04
1.000000000000000000e+01,-6.095264846760000182e+03,3.000000000000000076e-05,1.000000000000000082e-05,1.610000000000000103e-03,5.530000000000000193e-03,2.815529999999999927e+04
1.100000000000000000e+01,-6.095264846930000203e+03,2.000000000000000164e-05,0.000000000000000000e+00,5.400000000000000069e-04,1.510000000000000057e-03,2.898170000000000073e+04
